dresses ids,girls ids,y true
19,1,0
101,1,1
96,1,1
48,1,0
73,1,0
68,1,1
56,1,0
9,1,1
86,1,1
81,1,0
61,2,0
12,2,0
75,2,0
91,2,1
88,2,0
5,2,1
6,2,0
48,2,0
46,2,0
42,2,1
15,3,0
44,3,0
17,3,0
19,3,0
16,3,0
50,3,0
85,3,0
73,3,1
75,3,0
67,3,0
25,4,1
50,4,0
37,4,0
56,4,0
10,4,0
81,4,1
4,4,0
99,4,0
58,4,0
51,4,0
70,5,0
98,5,0
81,5,0
48,5,0
73,5,0
80,5,0
19,5,0
41,5,0
79,5,0
87,5,0
6,6,0
74,6,0
27,6,0
89,6,0
76,6,0
52,6,0
34,6,0
17,6,0
57,6,0
95,6,0
69,7,1
0,7,0
42,7,0
23,7,0
50,7,0
97,7,0
32,7,0
61,7,0
93,7,0
76,7,0
102,8,0
55,8,0
48,8,0
82,8,1
76,8,0
9,8,0
88,8,1
59,8,0
51,8,1
39,8,1
92,9,0
6,9,0
9,9,0
98,9,1
54,9,0
7,9,1
93,9,0
11,9,0
62,9,0
42,9,0
8,10,1
82,10,1
2,10,1
19,10,1
44,10,1
22,10,0
50,10,1
80,10,0
99,10,0
69,10,1
54,11,0
86,11,0
56,11,0
28,11,1
76,11,0
23,11,0
57,11,0
64,11,0
17,11,0
51,11,0
11,12,0
92,12,0
35,12,1
42,12,0
69,12,1
52,12,0
86,12,1
82,12,1
38,12,1
64,12,1
89,13,1
0,13,1
11,13,0
33,13,1
82,13,0
43,13,0
92,13,1
17,13,1
55,13,1
18,13,1
80,14,1
75,14,1
89,14,1
28,14,1
9,14,0
64,14,0
60,14,1
21,14,0
68,14,1
23,14,1
14,15,1
36,15,0
70,15,0
21,15,1
12,15,1
57,15,0
18,15,1
29,15,0
101,15,0
100,15,0
6,16,0
38,16,0
80,16,0
23,16,1
67,16,0
83,16,0
51,16,0
57,16,0
74,16,0
82,16,0
14,17,1
46,17,0
13,17,0
84,17,0
9,17,0
62,17,0
95,17,0
22,17,0
98,17,1
75,17,0
32,18,0
85,18,0
21,18,0
101,18,0
51,18,0
34,18,0
42,18,1
2,18,0
16,18,0
25,18,0
24,19,0
27,19,0
45,19,0
25,19,0
51,19,0
101,19,0
15,19,1
3,19,0
79,19,0
36,19,0
14,20,0
41,20,0
36,20,0
19,20,0
42,20,0
70,20,0
0,20,0
86,20,1
97,20,0
75,20,0
34,21,0
72,21,1
88,21,0
15,21,1
66,21,1
36,21,0
44,21,1
5,21,1
9,21,0
11,21,0
94,22,1
96,22,1
97,22,1
67,22,0
68,22,1
31,22,1
74,22,1
0,22,1
27,22,0
15,22,1
31,23,1
102,23,0
70,23,1
82,23,1
7,23,1
15,23,0
91,23,1
8,23,1
61,23,1
95,23,0
64,24,0
67,24,1
16,24,1
45,24,0
89,24,0
54,24,1
41,24,0
27,24,0
48,24,1
46,24,0
65,25,0
3,25,0
20,25,0
101,25,0
70,25,0
16,25,0
23,25,1
77,25,0
8,25,0
54,25,0
43,26,0
62,26,0
52,26,0
67,26,0
92,26,0
10,26,1
36,26,0
20,26,1
89,26,1
77,26,0
85,27,0
15,27,0
95,27,0
76,27,0
89,27,0
52,27,0
7,27,0
98,27,0
67,27,0
93,27,1
8,28,0
17,28,0
63,28,0
57,28,1
25,28,1
64,28,0
50,28,0
100,28,0
3,28,0
40,28,0
46,29,0
35,29,1
101,29,1
48,29,1
8,29,1
89,29,1
18,29,0
80,29,1
47,29,0
97,29,0
38,30,1
70,30,1
12,30,1
57,30,0
98,30,1
61,30,1
52,30,1
0,30,1
37,30,0
6,30,1
27,31,1
63,31,0
30,31,0
86,31,0
1,31,1
37,31,0
59,31,1
42,31,0
52,31,0
85,31,0
45,32,1
23,32,1
43,32,1
80,32,0
33,32,1
44,32,1
14,32,1
39,32,0
100,32,1
92,32,1
16,33,0
30,33,1
40,33,1
19,33,0
44,33,0
45,33,0
33,33,1
82,33,0
54,33,0
21,33,0
95,34,0
23,34,0
38,34,0
74,34,0
71,34,0
43,34,0
91,34,0
22,34,1
93,34,1
80,34,0
100,35,0
71,35,0
78,35,0
96,35,0
5,35,0
94,35,0
41,35,0
89,35,0
73,35,0
46,35,0
70,36,1
34,36,1
57,36,0
67,36,1
12,36,1
63,36,1
101,36,1
10,36,1
24,36,1
5,36,1
46,37,0
27,37,0
25,37,0
5,37,0
87,37,0
0,37,0
50,37,1
74,37,0
32,37,0
79,37,0
0,38,1
65,38,0
59,38,0
25,38,0
21,38,0
92,38,0
23,38,1
32,38,1
96,38,0
9,38,0
33,39,0
12,39,0
35,39,0
23,39,0
48,39,0
66,39,0
2,39,0
5,39,0
98,39,0
67,39,0
62,40,0
25,40,0
99,40,0
24,40,0
59,40,0
56,40,0
90,40,0
65,40,0
38,40,0
64,40,1
6,41,0
74,41,0
54,41,1
27,41,0
60,41,0
34,41,0
24,41,0
41,41,0
95,41,0
63,41,0
4,42,0
86,42,0
61,42,1
27,42,0
92,42,0
35,42,0
72,42,0
63,42,0
79,42,1
60,42,0
10,43,0
49,43,0
68,43,1
65,43,1
9,43,0
75,43,0
82,43,0
41,43,0
61,43,1
38,43,0
92,44,0
54,44,1
39,44,0
100,44,0
82,44,0
75,44,0
101,44,0
29,44,0
41,44,0
91,44,0
4,45,0
84,45,1
29,45,0
59,45,0
92,45,1
0,45,0
17,45,1
26,45,0
12,45,0
42,45,0
39,46,0
25,46,0
41,46,0
0,46,0
80,46,0
10,46,0
45,46,0
83,46,0
70,46,0
90,46,0
58,47,1
73,47,0
69,47,1
35,47,0
98,47,0
60,47,0
47,47,1
42,47,0
66,47,0
30,47,0
43,48,0
88,48,0
25,48,0
44,48,1
42,48,0
47,48,0
56,48,0
94,48,1
7,48,0
26,48,0
46,49,0
64,49,0
51,49,0
1,49,0
80,49,0
21,49,0
24,49,0
90,49,0
47,49,0
27,49,0
61,50,1
30,50,1
39,50,1
95,50,0
15,50,1
45,50,1
53,50,1
102,50,1
59,50,1
46,50,0
47,51,0
81,51,0
33,51,0
3,51,0
85,51,0
56,51,0
68,51,0
15,51,0
75,51,0
20,51,0
6,52,0
34,52,1
68,52,1
27,52,0
48,52,1
97,52,1
71,52,0
77,52,0
92,52,0
1,52,0
83,53,0
7,53,0
52,53,0
27,53,0
42,53,0
35,53,0
13,53,1
48,53,0
39,53,0
84,53,1
36,54,0
20,54,0
6,54,0
53,54,1
10,54,0
95,54,0
25,54,0
41,54,0
21,54,0
58,54,0
53,55,1
95,55,1
17,55,0
73,55,0
42,55,0
91,55,0
41,55,0
5,55,0
6,55,0
19,55,1
55,56,0
71,56,1
50,56,0
93,56,1
42,56,1
65,56,0
64,56,1
11,56,1
97,56,0
1,56,0
91,57,0
67,57,0
41,57,0
65,57,1
85,57,0
31,57,1
39,57,1
49,57,0
73,57,0
33,57,0
61,58,0
76,58,0
16,58,0
15,58,0
84,58,0
35,58,0
8,58,0
75,58,0
62,58,0
83,58,0
30,59,1
89,59,0
40,59,1
26,59,0
42,59,1
74,59,1
36,59,0
67,59,1
34,59,1
72,59,1
52,60,0
6,60,0
10,60,0
91,60,0
92,60,1
85,60,0
29,60,0
67,60,0
51,60,0
101,60,0
9,61,0
24,61,1
51,61,1
1,61,1
78,61,1
45,61,0
93,61,1
29,61,0
53,61,1
97,61,0
86,62,1
64,62,1
42,62,1
11,62,0
59,62,0
53,62,1
94,62,1
30,62,0
97,62,0
79,62,0
54,63,1
62,63,1
42,63,1
98,63,1
46,63,0
102,63,0
79,63,1
33,63,1
61,63,0
18,63,0
16,64,1
49,64,0
0,64,1
96,64,0
48,64,0
101,64,1
13,64,0
102,64,0
14,64,1
1,64,0
72,65,1
3,65,0
66,65,0
12,65,1
57,65,0
84,65,1
8,65,0
63,65,0
27,65,0
33,65,1
20,66,1
86,66,0
10,66,0
56,66,0
79,66,0
50,66,0
14,66,0
69,66,0
55,66,0
39,66,0
43,67,0
102,67,0
53,67,0
51,67,1
30,67,1
71,67,0
79,67,1
90,67,1
35,67,0
84,67,1
22,68,1
7,68,0
39,68,0
16,68,1
30,68,0
42,68,0
69,68,1
76,68,0
28,68,0
56,68,0
100,69,0
57,69,0
44,69,0
76,69,0
61,69,0
66,69,1
81,69,1
10,69,0
94,69,1
52,69,1
11,70,1
75,70,1
10,70,0
101,70,0
96,70,0
64,70,0
62,70,0
100,70,1
58,70,0
16,70,0
70,71,0
42,71,0
64,71,0
47,71,0
58,71,0
4,71,0
6,71,1
90,71,1
67,71,1
94,71,0
84,72,0
102,72,0
33,72,1
57,72,0
38,72,0
49,72,0
42,72,0
60,72,1
92,72,1
43,72,0
5,73,0
6,73,0
79,73,0
9,73,0
24,73,1
44,73,0
81,73,0
23,73,0
42,73,0
51,73,1
75,74,0
92,74,1
5,74,0
87,74,0
62,74,0
61,74,0
84,74,0
101,74,0
64,74,0
72,74,0
50,75,0
9,75,1
28,75,0
93,75,0
32,75,1
94,75,0
99,75,1
31,75,0
83,75,0
34,75,0
34,76,1
39,76,0
31,76,1
68,76,0
101,76,1
38,76,1
71,76,1
3,76,0
88,76,1
13,76,0
66,77,1
15,77,0
52,77,0
85,77,0
47,77,0
72,77,1
57,77,1
51,77,1
96,77,1
75,77,0
3,78,0
10,78,0
57,78,0
91,78,0
65,78,1
54,78,0
83,78,0
80,78,1
77,78,1
67,78,0
96,79,0
5,79,0
59,79,0
45,79,0
65,79,1
36,79,0
19,79,1
20,79,0
43,79,0
42,79,0
19,80,1
87,80,1
71,80,0
99,80,0
48,80,0
92,80,1
98,80,0
16,80,1
42,80,0
54,80,1
36,81,1
78,81,1
34,81,0
73,81,0
0,81,1
50,81,0
1,81,0
48,81,0
76,81,0
90,81,0
19,82,0
20,82,0
25,82,0
100,82,0
55,82,0
82,82,0
45,82,0
76,82,0
64,82,0
41,82,0
100,83,0
63,83,0
46,83,0
31,83,0
98,83,0
25,83,0
55,83,0
58,83,0
91,83,0
69,83,0
40,84,0
20,84,0
65,84,0
58,84,0
22,84,0
91,84,0
24,84,0
94,84,1
95,84,0
71,84,0
94,85,0
27,85,1
0,85,0
84,85,0
59,85,0
75,85,0
3,85,0
22,85,0
73,85,0
78,85,1
31,86,1
43,86,0
25,86,0
37,86,1
18,86,1
89,86,0
36,86,0
51,86,1
52,86,0
26,86,0
5,87,0
48,87,0
59,87,0
85,87,0
97,87,0
87,87,0
42,87,0
50,87,0
7,87,0
56,87,0
35,88,0
90,88,0
89,88,1
77,88,0
75,88,1
80,88,0
51,88,1
2,88,0
23,88,0
29,88,0
81,89,1
93,89,1
40,89,1
22,89,1
45,89,0
95,89,1
86,89,1
70,89,0
99,89,0
80,89,0
33,90,0
68,90,1
84,90,0
45,90,1
92,90,0
53,90,1
14,90,0
85,90,0
63,90,0
80,90,0
53,91,0
81,91,0
44,91,0
74,91,0
51,91,0
3,91,0
84,91,0
43,91,0
102,91,0
50,91,0
2,92,1
71,92,0
101,92,0
94,92,0
53,92,1
93,92,0
21,92,0
36,92,0
63,92,0
92,92,0
92,93,0
66,93,0
3,93,0
68,93,0
20,93,0
98,93,0
48,93,0
36,93,0
86,93,0
96,93,0
95,94,1
40,94,1
37,94,1
81,94,1
88,94,1
0,94,0
24,94,1
39,94,0
54,94,0
30,94,0
18,95,0
63,95,1
53,95,1
89,95,0
7,95,0
80,95,0
3,95,0
48,95,0
27,95,0
14,95,0
26,96,0
33,96,0
84,96,0
31,96,0
23,96,1
73,96,0
27,96,0
15,96,0
25,96,0
66,96,1
24,97,0
14,97,0
101,97,0
86,97,0
49,97,0
94,97,0
50,97,0
29,97,0
63,97,0
77,97,0
57,98,0
100,98,0
10,98,0
67,98,1
45,98,0
72,98,0
83,98,0
18,98,1
91,98,0
97,98,0
57,99,0
80,99,1
65,99,0
42,99,1
30,99,1
59,99,0
82,99,1
91,99,0
26,99,0
34,99,1
70,100,1
68,100,0
90,100,1
74,100,0
7,100,1
19,100,0
72,100,0
2,100,0
1,100,0
83,100,0
53,101,0
34,101,0
86,101,1
28,101,1
56,101,0
95,101,0
19,101,0
8,101,0
88,101,1
58,101,0
72,102,1
67,102,1
88,102,1
20,102,0
75,102,1
92,102,1
29,102,1
99,102,0
101,102,0
36,102,1
30,103,1
9,103,0
82,103,0
85,103,0
21,103,0
77,103,0
44,103,0
95,103,0
39,103,0
63,103,1
37,104,1
21,104,0
2,104,1
41,104,0
24,104,1
18,104,1
23,104,0
87,104,0
97,104,0
43,104,0
75,105,0
34,105,1
30,105,1
7,105,1
32,105,1
13,105,0
98,105,1
40,105,1
22,105,0
92,105,0
19,106,0
78,106,0
34,106,1
60,106,0
27,106,1
48,106,0
81,106,1
94,106,0
87,106,1
2,106,1
64,107,0
57,107,0
3,107,0
19,107,1
23,107,1
26,107,0
90,107,0
48,107,1
67,107,0
46,107,0
29,108,0
77,108,0
33,108,1
19,108,1
1,108,0
46,108,0
79,108,0
41,108,0
51,108,1
53,108,0
37,109,0
39,109,0
71,109,0
27,109,0
45,109,1
77,109,0
87,109,0
96,109,0
7,109,0
72,109,0
