dresses ids,girls ids,y true
9,1,1
4,1,1
69,1,1
26,1,1
19,1,0
75,1,1
68,1,1
81,1,0
77,1,0
101,1,1
66,1,0
86,1,1
91,1,1
23,1,0
3,1,0
40,1,1
48,1,0
93,1,0
78,1,1
62,1,0
63,2,1
42,2,1
77,2,0
23,2,1
58,2,1
46,2,0
45,2,0
29,2,0
15,2,0
21,2,0
43,2,1
56,2,1
91,2,1
80,2,0
48,2,0
39,2,0
55,2,0
12,2,0
38,2,1
17,2,0
14,3,0
54,3,0
45,3,0
47,3,0
77,3,0
50,3,0
100,3,0
85,3,0
43,3,0
65,3,0
31,3,0
13,3,0
33,3,0
23,3,0
68,3,0
94,3,0
56,3,0
5,3,0
90,3,0
41,3,1
47,4,0
58,4,0
51,4,0
60,4,0
33,4,1
5,4,0
61,4,0
37,4,0
26,4,0
81,4,1
10,4,0
41,4,0
59,4,0
71,4,0
4,4,0
34,4,0
11,4,0
74,4,0
56,4,0
30,4,0
35,5,0
69,5,0
39,5,0
38,5,0
40,5,0
1,5,0
19,5,0
54,5,0
48,5,0
82,5,0
70,5,0
55,5,0
34,5,0
2,5,0
13,5,0
98,5,0
18,5,0
42,5,0
43,5,0
29,5,0
58,6,1
62,6,0
31,6,0
27,6,0
16,6,1
35,6,0
39,6,0
84,6,0
91,6,1
33,6,0
28,6,0
95,6,0
36,6,0
92,6,1
76,6,0
34,6,0
17,6,0
4,6,0
5,6,0
94,6,1
67,7,0
12,7,1
43,7,0
100,7,0
98,7,1
50,7,0
77,7,0
93,7,0
46,7,0
32,7,0
18,7,0
102,7,1
56,7,1
40,7,0
70,7,0
61,7,0
68,7,1
92,7,1
38,7,0
23,7,0
76,8,0
88,8,1
89,8,1
71,8,1
95,8,0
48,8,0
37,8,1
86,8,1
58,8,1
18,8,0
27,8,0
9,8,0
102,8,0
54,8,0
82,8,1
59,8,0
40,8,1
49,8,0
55,8,0
35,8,0
58,9,0
84,9,1
98,9,1
6,9,0
80,9,1
54,9,0
93,9,0
42,9,0
35,9,0
18,9,0
92,9,0
27,9,0
17,9,1
7,9,1
86,9,1
82,9,1
20,9,0
79,9,0
38,9,0
4,9,0
80,10,0
25,10,1
47,10,0
81,10,1
11,10,1
82,10,1
30,10,1
90,10,1
18,10,1
69,10,1
35,10,1
58,10,1
38,10,1
10,10,1
40,10,0
15,10,1
5,10,0
31,10,1
17,10,1
75,10,1
22,11,0
28,11,1
102,11,1
56,11,0
82,11,0
49,11,1
14,11,1
76,11,0
101,11,1
51,11,0
72,11,0
6,11,1
75,11,0
86,11,0
100,11,1
7,11,1
89,11,0
80,11,0
57,11,0
54,11,0
85,12,0
68,12,1
45,12,1
11,12,0
71,12,1
52,12,0
63,12,1
43,12,0
31,12,1
51,12,1
89,12,0
69,12,1
40,12,0
97,12,1
21,12,1
53,12,1
27,12,0
72,12,1
100,12,1
82,12,1
79,13,0
48,13,0
40,13,1
36,13,0
57,13,0
82,13,0
101,13,0
35,13,0
85,13,0
33,13,1
44,13,0
45,13,0
61,13,0
64,13,0
100,13,0
32,13,1
6,13,0
19,13,1
77,13,1
51,13,1
57,14,1
85,14,0
28,14,1
22,14,0
42,14,1
23,14,1
76,14,1
9,14,0
78,14,1
64,14,0
8,14,1
24,14,0
20,14,1
68,14,1
56,14,1
101,14,1
29,14,0
89,14,1
45,14,1
2,14,1
14,15,1
72,15,0
58,15,1
74,15,1
69,15,0
18,15,1
44,15,0
100,15,0
31,15,0
91,15,0
93,15,1
66,15,0
0,15,1
102,15,0
5,15,0
71,15,0
89,15,0
78,15,0
12,15,1
39,15,1
65,16,0
95,16,0
50,16,0
62,16,0
31,16,1
36,16,0
60,16,0
54,16,0
80,16,0
64,16,0
48,16,0
44,16,1
23,16,1
82,16,0
68,16,1
99,16,0
15,16,0
51,16,0
57,16,0
27,16,1
14,17,1
64,17,1
69,17,0
21,17,0
43,17,0
93,17,1
44,17,0
36,17,0
74,17,0
46,17,0
13,17,0
98,17,1
42,17,0
70,17,1
86,17,0
41,17,0
95,17,0
75,17,0
87,17,0
15,17,0
52,18,0
27,18,0
2,18,0
91,18,1
81,18,0
87,18,0
45,18,0
70,18,0
85,18,0
89,18,1
64,18,0
6,18,0
23,18,0
38,18,0
41,18,0
34,18,0
35,18,0
65,18,0
39,18,1
44,18,0
61,19,0
90,19,0
70,19,1
22,19,1
3,19,0
51,19,0
52,19,1
66,19,1
72,19,1
101,19,0
13,19,1
12,19,1
20,19,0
7,19,1
60,19,0
97,19,0
16,19,1
17,19,0
0,19,1
100,19,0
92,20,0
32,20,0
55,20,0
56,20,0
70,20,0
63,20,0
4,20,0
11,20,0
6,20,0
14,20,0
97,20,0
8,20,1
1,20,0
91,20,1
39,20,0
90,20,0
23,20,0
83,20,0
98,20,1
36,20,0
18,21,1
72,21,1
89,21,1
69,21,1
74,21,0
40,21,1
62,21,0
94,21,0
34,21,0
9,21,0
80,21,1
99,21,0
90,21,0
16,21,1
68,21,1
11,21,0
26,21,0
79,21,0
91,21,1
47,21,0
29,22,0
21,22,1
97,22,1
58,22,0
71,22,0
79,22,1
75,22,1
89,22,0
40,22,1
39,22,0
64,22,0
76,22,0
15,22,1
54,22,1
2,22,1
86,22,0
16,22,0
18,22,0
8,22,1
44,22,0
79,23,0
33,23,1
18,23,1
54,23,0
101,23,1
47,23,0
26,23,0
69,23,1
45,23,1
71,23,0
95,23,0
17,23,0
64,23,0
41,23,0
48,23,0
86,23,0
61,23,1
7,23,1
82,23,1
75,23,1
46,24,0
26,24,0
16,24,1
56,24,0
45,24,0
39,24,0
78,24,1
54,24,1
22,24,0
27,24,0
62,24,1
33,24,0
102,24,1
69,24,0
58,24,1
31,24,0
97,24,0
75,24,0
28,24,1
21,24,0
32,25,0
23,25,1
45,25,0
44,25,0
58,25,0
87,25,0
98,25,1
3,25,0
29,25,0
86,25,0
4,25,0
70,25,0
94,25,0
92,25,1
66,25,0
18,25,0
90,25,0
93,25,0
6,25,1
8,25,0
52,26,0
83,26,0
54,26,1
15,26,0
99,26,1
37,26,1
6,26,0
35,26,0
72,26,1
60,26,1
55,26,1
68,26,1
95,26,1
22,26,1
98,26,0
61,26,0
20,26,1
92,26,0
67,26,0
27,26,0
89,27,0
62,27,0
47,27,0
93,27,1
37,27,0
44,27,1
98,27,0
6,27,0
67,27,0
17,27,0
59,27,0
5,27,0
31,27,0
51,27,0
70,27,0
53,27,0
45,27,0
85,27,0
91,27,0
20,27,0
25,28,1
22,28,0
3,28,0
17,28,0
8,28,0
100,28,0
93,28,0
38,28,0
39,28,0
45,28,0
34,28,1
68,28,0
31,28,0
99,28,0
6,28,0
85,28,0
15,28,0
92,28,1
97,28,0
40,28,0
18,29,0
34,29,1
41,29,0
16,29,1
93,29,1
96,29,1
50,29,1
48,29,1
55,29,1
60,29,0
11,29,1
84,29,1
46,29,0
80,29,1
0,29,1
57,29,1
2,29,1
97,29,0
40,29,1
74,29,1
53,30,1
6,30,1
27,30,0
46,30,1
69,30,1
18,30,1
2,30,1
31,30,0
30,30,1
11,30,1
90,30,1
38,30,1
15,30,1
12,30,1
23,30,1
57,30,0
68,30,1
62,30,1
42,30,0
74,30,1
28,31,0
79,31,0
100,31,0
30,31,0
42,31,0
19,31,0
35,31,0
63,31,0
69,31,0
0,31,0
43,31,0
39,31,0
82,31,0
47,31,0
64,31,0
16,31,0
74,31,1
98,31,0
53,31,0
68,31,1
35,32,0
91,32,1
62,32,1
52,32,0
54,32,0
36,32,0
59,32,0
84,32,0
23,32,1
77,32,1
57,32,1
39,32,0
56,32,1
33,32,1
19,32,1
31,32,1
48,32,0
63,32,0
58,32,1
102,32,0
59,33,0
44,33,0
102,33,0
40,33,1
17,33,1
76,33,0
28,33,1
79,33,1
97,33,0
6,33,0
66,33,1
82,33,0
30,33,1
21,33,0
54,33,0
45,33,0
71,33,0
47,33,0
27,33,0
86,33,0
4,34,0
63,34,1
49,34,0
56,34,1
99,34,1
47,34,0
95,34,0
23,34,0
71,34,0
19,34,0
101,34,0
7,34,1
53,34,0
15,34,0
42,34,0
78,34,0
77,34,0
86,34,0
25,34,0
91,34,0
67,35,0
102,35,0
72,35,1
78,35,0
52,35,1
41,35,0
15,35,0
75,35,0
89,35,0
98,35,0
66,35,1
51,35,0
96,35,0
0,35,0
36,35,0
24,35,0
69,35,0
55,35,0
93,35,1
79,35,0
73,36,1
9,36,0
67,36,1
7,36,1
34,36,1
94,36,1
39,36,1
18,36,0
75,36,0
63,36,1
70,36,1
53,36,1
12,36,1
50,36,1
88,36,0
5,36,1
28,36,0
56,36,1
29,36,0
19,36,1
70,37,0
65,37,0
96,37,0
82,37,0
6,37,0
59,37,0
14,37,0
39,37,0
46,37,0
1,37,0
15,37,0
87,37,0
86,37,0
74,37,0
61,37,0
20,37,0
79,37,0
0,37,0
64,37,0
42,37,0
21,38,0
59,38,0
29,38,1
89,38,0
58,38,0
78,38,1
96,38,0
42,38,0
25,38,0
61,38,0
88,38,0
92,38,0
53,38,0
13,38,1
67,38,0
7,38,1
60,38,1
95,38,1
35,38,0
86,38,0
34,39,0
78,39,1
67,39,0
25,39,0
31,39,0
98,39,0
43,39,1
24,39,0
82,39,0
26,39,0
62,39,0
61,39,0
6,39,0
94,39,1
97,39,1
71,39,0
48,39,0
29,39,0
15,39,0
69,39,0
62,40,0
25,40,0
91,40,0
100,40,0
7,40,0
56,40,0
99,40,0
15,40,1
44,40,0
38,40,0
83,40,0
13,40,0
17,40,0
27,40,0
76,40,0
2,40,0
68,40,1
22,40,0
14,40,0
34,40,0
42,41,0
72,41,1
29,41,0
13,41,0
6,41,0
54,41,1
9,41,0
34,41,0
73,41,0
58,41,0
78,41,0
19,41,0
38,41,1
95,41,0
25,41,0
10,41,0
31,41,0
71,41,0
50,41,0
86,41,0
17,42,0
94,42,0
85,42,0
39,42,0
79,42,1
20,42,0
55,42,1
68,42,1
88,42,0
63,42,0
54,42,0
44,42,1
66,42,1
76,42,0
70,42,0
57,42,0
82,42,0
99,42,1
6,42,0
64,42,0
82,43,0
36,43,0
75,43,0
0,43,0
16,43,1
47,43,0
9,43,0
84,43,0
56,43,1
38,43,0
2,43,1
42,43,0
32,43,0
41,43,0
18,43,0
4,43,0
99,43,0
67,43,1
101,43,1
78,43,0
73,44,0
67,44,0
100,44,0
55,44,1
79,44,1
81,44,1
47,44,1
15,44,0
29,44,0
39,44,0
48,44,0
64,44,0
3,44,0
92,44,0
2,44,0
18,44,0
21,44,0
26,44,0
54,44,1
75,44,0
49,45,0
4,45,0
27,45,0
32,45,1
70,45,0
73,45,0
92,45,1
94,45,0
74,45,1
90,45,0
14,45,0
59,45,0
95,45,0
54,45,0
0,45,0
65,45,0
35,45,1
67,45,0
62,45,0
57,45,0
41,46,0
67,46,1
37,46,0
25,46,0
56,46,0
80,46,0
39,46,0
0,46,0
23,46,0
77,46,0
61,46,1
16,46,1
5,46,0
21,46,0
3,46,1
13,46,0
42,46,0
85,46,0
35,46,1
38,46,0
69,47,1
97,47,1
22,47,1
49,47,0
4,47,0
81,47,0
84,47,0
96,47,0
95,47,0
99,47,0
55,47,0
66,47,0
65,47,0
93,47,0
68,47,0
0,47,1
101,47,1
58,47,1
8,47,0
98,47,0
3,48,0
42,48,0
26,48,0
62,48,1
85,48,0
84,48,0
32,48,0
49,48,0
57,48,0
66,48,0
50,48,0
54,48,0
47,48,0
90,48,0
17,48,0
23,48,0
71,48,0
74,48,0
67,48,0
20,48,0
47,49,0
49,49,0
25,49,0
1,49,0
31,49,0
13,49,0
51,49,0
5,49,0
100,49,0
27,49,0
82,49,0
22,49,1
46,49,0
3,49,0
17,49,0
98,49,0
24,49,0
78,49,1
12,49,0
18,49,0
55,50,1
86,50,1
38,50,1
72,50,1
94,50,1
77,50,0
73,50,0
95,50,0
49,50,1
46,50,0
84,50,0
13,50,1
45,50,1
32,50,1
102,50,1
66,50,1
4,50,1
8,50,1
19,50,1
12,50,1
62,51,0
2,51,1
33,51,0
12,51,0
22,51,1
13,51,0
94,51,0
1,51,0
63,51,1
93,51,0
72,51,0
31,51,0
15,51,0
78,51,0
85,51,0
14,51,0
0,51,0
61,51,0
66,51,0
76,51,0
42,52,0
13,52,0
66,52,0
83,52,1
62,52,0
14,52,0
48,52,1
37,52,0
99,52,1
51,52,1
28,52,0
23,52,0
20,52,0
79,52,0
24,52,0
27,52,0
100,52,0
31,52,0
74,52,1
16,52,0
97,53,1
57,53,1
15,53,0
61,53,0
101,53,0
52,53,0
28,53,1
91,53,1
4,53,0
48,53,0
27,53,0
7,53,0
3,53,0
80,53,0
39,53,0
40,53,0
25,53,1
83,53,0
67,53,1
89,53,0
43,54,0
73,54,0
88,54,0
5,54,1
90,54,0
42,54,1
58,54,0
21,54,0
20,54,0
25,54,0
93,54,1
33,54,0
65,54,1
1,54,0
102,54,0
18,54,1
9,54,0
74,54,0
45,54,0
51,54,0
95,55,1
97,55,1
43,55,0
98,55,1
38,55,0
79,55,1
4,55,1
21,55,0
16,55,1
55,55,0
42,55,0
66,55,1
17,55,0
3,55,0
41,55,0
53,55,1
70,55,0
91,55,0
13,55,0
6,55,0
11,56,1
58,56,1
70,56,0
101,56,1
64,56,1
65,56,0
66,56,1
1,56,0
7,56,1
28,56,0
55,56,0
93,56,1
99,56,0
81,56,0
76,56,0
85,56,0
61,56,0
51,56,1
90,56,0
71,56,1
75,57,1
52,57,0
13,57,0
2,57,1
26,57,0
3,57,0
38,57,0
84,57,1
50,57,1
101,57,1
56,57,1
87,57,1
100,57,0
61,57,1
20,57,0
35,57,0
33,57,0
73,57,0
85,57,0
31,57,1
75,58,0
8,58,0
62,58,0
44,58,0
32,58,0
42,58,0
35,58,0
96,58,0
38,58,0
39,58,1
19,58,0
67,58,0
15,58,0
16,58,0
60,58,0
13,58,0
25,58,0
7,58,0
34,58,0
83,58,0
42,59,1
90,59,1
80,59,1
98,59,1
18,59,1
39,59,0
51,59,1
26,59,0
88,59,0
64,59,1
66,59,1
74,59,1
60,59,1
91,59,1
1,59,0
32,59,1
72,59,1
67,59,1
65,59,1
59,59,1
77,60,0
44,60,1
45,60,0
66,60,1
19,60,0
29,60,0
98,60,1
9,60,0
27,60,0
21,60,1
81,60,0
85,60,0
52,60,0
70,60,0
6,60,0
13,60,0
58,60,0
80,60,0
91,60,0
101,60,0
9,61,0
90,61,1
82,61,0
14,61,0
97,61,0
62,61,1
28,61,0
100,61,0
73,61,1
24,61,1
95,61,1
101,61,0
47,61,0
45,61,0
29,61,0
33,61,1
87,61,0
66,61,1
54,61,0
78,61,1
28,62,0
23,62,0
10,62,0
2,62,0
63,62,1
59,62,0
86,62,1
94,62,1
30,62,0
79,62,0
21,62,0
24,62,1
35,62,0
68,62,0
42,62,1
33,62,1
91,62,0
13,62,0
25,62,1
11,62,0
68,63,0
44,63,1
31,63,1
86,63,0
67,63,1
24,63,0
43,63,0
34,63,0
16,63,1
29,63,0
61,63,0
79,63,1
22,63,1
47,63,1
10,63,0
88,63,1
46,63,0
32,63,1
18,63,0
70,63,1
12,64,0
33,64,1
57,64,0
29,64,0
16,64,1
39,64,0
15,64,0
93,64,1
71,64,0
66,64,1
56,64,1
92,64,1
43,64,0
1,64,0
77,64,0
49,64,0
48,64,0
26,64,0
69,64,1
89,64,0
47,65,0
44,65,0
53,65,0
51,65,0
92,65,1
17,65,0
57,65,0
3,65,0
81,65,0
25,65,0
12,65,1
63,65,0
90,65,0
83,65,0
96,65,1
10,65,0
33,65,1
38,65,1
32,65,0
89,65,1
69,66,0
1,66,0
22,66,0
41,66,0
18,66,1
14,66,0
86,66,0
55,66,0
46,66,0
3,66,0
80,66,0
92,66,1
49,66,0
39,66,0
52,66,0
64,66,0
10,66,0
72,66,1
60,66,0
19,66,0
7,67,1
30,67,1
8,67,1
40,67,0
12,67,1
80,67,1
102,67,0
34,67,1
97,67,0
42,67,1
38,67,1
90,67,1
71,67,0
100,67,1
85,67,0
53,67,0
28,67,0
37,67,0
35,67,0
50,67,1
11,68,0
75,68,0
38,68,0
22,68,1
40,68,1
77,68,0
42,68,0
3,68,0
56,68,0
43,68,1
88,68,0
95,68,0
19,68,1
66,68,1
12,68,0
97,68,0
57,68,0
45,68,0
36,68,0
93,68,1
14,69,0
57,69,0
61,69,0
75,69,1
11,69,0
46,69,0
4,69,0
89,69,0
34,69,0
66,69,1
44,69,0
52,69,1
79,69,1
97,69,1
95,69,1
94,69,1
84,69,1
96,69,0
16,69,0
80,69,1
6,70,0
10,70,0
80,70,0
43,70,0
26,70,0
79,70,0
58,70,0
18,70,0
81,70,1
46,70,0
12,70,1
13,70,0
99,70,1
75,70,1
70,70,0
41,70,1
35,70,0
51,70,0
83,70,1
39,70,0
12,71,1
29,71,0
94,71,0
57,71,0
39,71,1
87,71,0
0,71,1
85,71,0
78,71,0
10,71,0
36,71,1
41,71,0
3,71,0
14,71,1
58,71,0
101,71,0
52,71,0
90,71,1
61,71,0
5,71,0
43,72,0
33,72,1
95,72,1
35,72,0
78,72,1
62,72,1
87,72,0
41,72,0
66,72,1
64,72,0
94,72,0
84,72,0
46,72,0
63,72,0
11,72,0
100,72,0
31,72,0
77,72,0
85,72,0
90,72,1
47,73,0
52,73,0
20,73,0
16,73,1
23,73,0
79,73,0
72,73,0
95,73,0
51,73,1
93,73,0
58,73,0
8,73,0
5,73,0
31,73,0
22,73,0
60,73,0
99,73,0
84,73,0
13,73,0
11,73,0
26,74,0
62,74,0
102,74,0
31,74,1
17,74,0
39,74,1
87,74,0
10,74,0
4,74,0
57,74,0
51,74,1
14,74,0
42,74,0
96,74,0
9,74,0
5,74,0
72,74,0
92,74,1
84,74,0
3,74,1
37,75,0
86,75,0
28,75,0
45,75,0
4,75,1
83,75,0
91,75,0
43,75,0
77,75,0
14,75,0
34,75,0
67,75,0
6,75,0
82,75,0
50,75,0
35,75,1
71,75,0
99,75,1
54,75,0
39,75,0
27,76,1
98,76,1
14,76,1
18,76,1
3,76,0
100,76,0
71,76,1
69,76,1
79,76,0
5,76,1
39,76,0
7,76,1
75,76,1
73,76,1
48,76,1
49,76,1
59,76,0
37,76,0
44,76,1
45,76,1
75,77,0
14,77,1
92,77,1
28,77,1
12,77,1
56,77,0
101,77,0
81,77,1
91,77,1
16,77,0
70,77,0
72,77,1
55,77,1
93,77,1
24,77,1
47,77,0
96,77,1
46,77,0
38,77,0
33,77,1
7,78,0
57,78,0
44,78,0
85,78,0
60,78,0
3,78,0
45,78,1
31,78,1
91,78,0
67,78,0
21,78,0
87,78,0
30,78,0
76,78,0
68,78,1
94,78,1
59,78,0
10,78,0
27,78,0
61,78,0
77,79,0
24,79,0
47,79,0
55,79,0
4,79,0
96,79,0
88,79,0
32,79,0
14,79,0
85,79,0
65,79,1
45,79,0
18,79,0
68,79,1
64,79,0
27,79,0
34,79,0
21,79,0
22,79,1
49,79,1
24,80,1
4,80,0
85,80,0
98,80,0
71,80,0
87,80,1
51,80,1
48,80,0
99,80,0
42,80,0
16,80,1
78,80,0
3,80,0
92,80,1
96,80,0
20,80,1
26,80,0
61,80,1
80,80,1
15,80,1
65,81,0
73,81,0
56,81,1
36,81,1
78,81,1
52,81,0
50,81,0
85,81,0
30,81,0
76,81,0
35,81,0
66,81,0
10,81,0
93,81,0
1,81,0
90,81,0
26,81,0
14,81,1
70,81,1
37,81,1
76,82,0
31,82,0
89,82,0
40,82,0
90,82,0
20,82,0
55,82,0
9,82,1
86,82,0
98,82,0
70,82,0
2,82,1
25,82,0
82,82,0
101,82,1
47,82,0
51,82,0
7,82,0
34,82,0
41,82,0
55,83,0
61,83,0
92,83,0
30,83,1
101,83,0
62,83,0
86,83,1
69,83,0
3,83,0
102,83,0
58,83,0
68,83,0
84,83,1
25,83,0
85,83,0
82,83,0
17,83,0
49,83,0
79,83,0
23,83,0
81,84,0
69,84,1
22,84,0
82,84,0
3,84,1
78,84,1
68,84,0
28,84,1
71,84,0
43,84,1
58,84,0
72,84,0
91,84,0
7,84,0
96,84,0
61,84,0
53,84,0
95,84,0
100,84,0
94,84,1
5,85,0
79,85,0
15,85,0
18,85,0
53,85,0
22,85,0
71,85,0
7,85,0
73,85,0
32,85,1
10,85,0
85,85,0
51,85,1
67,85,0
3,85,0
61,85,0
68,85,0
12,85,0
83,85,0
76,85,0
74,86,0
8,86,0
28,86,1
13,86,0
45,86,1
16,86,1
50,86,1
52,86,0
99,86,0
79,86,0
89,86,0
18,86,1
59,86,1
37,86,1
82,86,0
14,86,0
64,86,1
36,86,0
11,86,0
34,86,0
59,87,0
50,87,0
102,87,0
66,87,0
0,87,0
40,87,0
88,87,0
7,87,0
33,87,1
5,87,0
49,87,0
29,87,0
80,87,0
91,87,0
15,87,0
78,87,0
87,87,0
52,87,0
63,87,0
1,87,1
100,88,0
30,88,0
46,88,0
60,88,1
48,88,0
33,88,0
73,88,1
88,88,0
76,88,0
7,88,1
31,88,0
94,88,1
10,88,1
28,88,1
9,88,1
29,88,0
81,88,0
0,88,0
1,88,0
23,88,0
95,89,1
71,89,0
61,89,0
9,89,1
45,89,0
8,89,1
34,89,0
85,89,1
10,89,1
64,89,1
17,89,0
74,89,1
70,89,0
93,89,1
58,89,1
20,89,0
94,89,0
22,89,1
102,89,0
80,89,0
31,90,1
53,90,1
14,90,0
61,90,1
27,90,1
65,90,0
33,90,0
71,90,0
44,90,1
55,90,1
66,90,1
99,90,0
67,90,0
68,90,1
63,90,0
76,90,1
26,90,0
21,90,0
35,90,0
82,90,0
23,91,0
95,91,0
15,91,1
67,91,0
52,91,0
24,91,0
54,91,0
30,91,0
81,91,0
73,91,1
29,91,0
102,91,0
100,91,0
86,91,0
38,91,0
39,91,0
50,91,0
60,91,0
49,91,0
45,91,0
71,92,0
75,92,0
24,92,0
6,92,0
93,92,0
101,92,0
85,92,0
7,92,1
80,92,1
45,92,0
60,92,1
38,92,0
66,92,0
52,92,1
79,92,1
15,92,1
53,92,1
37,92,0
1,92,0
10,92,0
98,93,0
11,93,0
17,93,0
25,93,0
19,93,0
26,93,0
100,93,0
51,93,0
88,93,0
56,93,0
8,93,0
80,93,0
68,93,0
14,93,0
38,93,0
43,93,0
78,93,0
9,93,0
64,93,0
86,93,0
41,94,1
84,94,0
21,94,1
46,94,0
95,94,1
93,94,0
50,94,0
54,94,0
90,94,1
62,94,1
0,94,0
14,94,1
61,94,1
67,94,0
96,94,1
89,94,0
48,94,1
31,94,1
92,94,0
60,94,0
6,95,1
92,95,1
70,95,1
3,95,0
41,95,1
7,95,0
96,95,0
13,95,1
10,95,1
65,95,1
33,95,1
81,95,1
60,95,1
27,95,0
53,95,1
56,95,0
54,95,1
25,95,1
75,95,1
14,95,0
41,96,0
33,96,0
102,96,0
76,96,0
69,96,0
52,96,0
84,96,0
0,96,1
61,96,0
24,96,0
2,96,0
78,96,0
70,96,0
95,96,0
66,96,1
73,96,0
26,96,0
79,96,0
25,96,0
99,96,1
25,97,0
54,97,0
0,97,0
63,97,0
73,97,0
31,97,0
12,97,0
94,97,0
81,97,0
26,97,0
24,97,0
50,97,0
102,97,0
40,97,0
84,97,0
15,97,0
89,97,1
46,97,0
101,97,0
6,97,0
43,98,1
73,98,1
51,98,1
99,98,0
17,98,0
92,98,1
100,98,0
18,98,1
27,98,0
45,98,0
97,98,0
82,98,0
72,98,0
61,98,0
71,98,0
37,98,0
54,98,1
8,98,1
83,98,0
5,98,0
77,99,0
82,99,1
84,99,1
36,99,1
13,99,0
16,99,1
30,99,1
71,99,1
51,99,1
50,99,1
35,99,1
65,99,0
32,99,1
61,99,0
86,99,0
40,99,1
5,99,1
83,99,0
14,99,0
0,99,0
64,100,0
37,100,0
25,100,0
100,100,0
88,100,1
53,100,0
99,100,1
61,100,0
85,100,0
24,100,0
94,100,0
0,100,0
42,100,0
76,100,0
63,100,1
39,100,0
66,100,1
11,100,0
43,100,0
27,100,0
51,101,0
11,101,0
14,101,0
28,101,1
19,101,0
61,101,0
10,101,0
43,101,0
88,101,1
58,101,0
98,101,0
31,101,0
67,101,1
91,101,0
102,101,1
36,101,0
63,101,0
101,101,0
54,101,0
49,101,0
101,102,0
0,102,1
26,102,1
6,102,0
93,102,1
94,102,1
53,102,1
80,102,0
43,102,1
92,102,1
60,102,1
27,102,0
20,102,0
63,102,1
69,102,1
75,102,1
100,102,0
21,102,1
56,102,1
49,102,1
6,103,0
82,103,0
29,103,0
1,103,0
22,103,1
37,103,0
80,103,0
62,103,0
39,103,0
77,103,0
56,103,1
30,103,1
44,103,0
9,103,0
57,103,0
5,103,0
84,103,0
41,103,0
18,103,1
31,103,0
70,104,0
44,104,1
2,104,1
24,104,1
0,104,0
43,104,0
98,104,1
82,104,0
57,104,0
55,104,0
96,104,1
18,104,1
10,104,1
68,104,1
78,104,1
93,104,0
95,104,0
91,104,0
14,104,1
34,104,0
45,105,0
101,105,1
41,105,0
86,105,0
64,105,0
35,105,0
13,105,0
24,105,0
70,105,0
60,105,1
22,105,0
52,105,0
20,105,0
63,105,0
17,105,1
32,105,1
66,105,1
40,105,1
34,105,1
87,105,0
80,106,1
45,106,0
4,106,1
0,106,0
60,106,0
47,106,0
1,106,1
92,106,1
27,106,1
87,106,1
12,106,1
19,106,0
23,106,0
20,106,0
65,106,1
91,106,1
2,106,1
77,106,0
18,106,1
55,106,1
63,107,0
19,107,1
94,107,1
26,107,0
39,107,0
57,107,0
46,107,0
53,107,1
5,107,0
102,107,0
81,107,0
17,107,1
72,107,1
67,107,0
58,107,0
75,107,0
64,107,0
61,107,0
84,107,1
22,107,0
53,108,0
97,108,0
64,108,0
42,108,0
79,108,0
51,108,1
40,108,0
73,108,0
77,108,0
33,108,1
7,108,0
29,108,0
31,108,1
98,108,1
86,108,0
36,108,0
23,108,0
46,108,0
3,108,0
41,108,0
10,109,0
27,109,0
76,109,0
101,109,1
7,109,0
20,109,0
64,109,0
59,109,0
62,109,1
30,109,0
24,109,0
72,109,0
48,109,0
85,109,0
96,109,0
69,109,1
44,109,0
58,109,0
12,109,1
100,109,0
